[
{
   "fields": {
      "nome": "Afrodescendente"
   },
   "model": "core.identidadeetinicocultural",
   "pk": 1
},
{
   "fields": {
      "nome": "Caiçara"
   },
   "model": "core.identidadeetinicocultural",
   "pk": 2
},
{
   "fields": {
      "nome": "Cigana"
   },
   "model": "core.identidadeetinicocultural",
   "pk": 3
},
{
   "fields": {
      "nome": "Indígena"
   },
   "model": "core.identidadeetinicocultural",
   "pk": 4
},
{
   "fields": {
      "nome": "Quilombola"
   },
   "model": "core.identidadeetinicocultural",
   "pk": 5
},
{
   "fields": {
      "nome": "Pomerana "
   },
   "model": "core.identidadeetinicocultural",
   "pk": 6
},
{
   "fields": {
      "nome": "Ribeirinha"
   },
   "model": "core.identidadeetinicocultural",
   "pk": 7
},
{
   "fields": {
      "nome": "Imigrante"
   },
   "model": "core.identidadeetinicocultural",
   "pk": 8
},
{
   "fields": {
      "nome": "Outros"
   },
   "model": "core.identidadeetinicocultural",
   "pk": 9
}
]
