[{"fields": {"nome": "Acervos / Arquivos"}, "model": "core.areaatuacao", "pk": 1},

//{"fields": {"nome": "Arquivos"}, "model": "core.areaatuacao", "pk": 2},
// pk 2 vira 1


{"fields": {"nome": "Ambiental / Ecológica"}, "model": "core.areaatuacao", "pk": 3},
{"fields": {"nome": "Arquitetura e urbanismo"}, "model": "core.areaatuacao", "pk": 4},

// {"fields": {"nome": "Arte Contemporânea"}, "model": "core.areaatuacao", "pk": 5},
//{"fields": {"nome": "Arte de Rua"}, "model": "core.areaatuacao", "pk": 6},
// pk 5 e 6 vira 7

{"fields": {"nome": "Arte e cultura"}, "model": "core.areaatuacao", "pk": 7},

//{"fields": {"nome": "Arte urbana"}, "model": "core.areaatuacao", "pk": 8}, 
// pk 8 vira 7


{"fields": {"nome": "Arte-educação"}, "model": "core.areaatuacao", "pk": 9},
{"fields": {"nome": "Audiovisual"}, "model": "core.areaatuacao", "pk": 10},

// {"fields": {"nome": "Arte Digital"}, "model": "core.areaatuacao", "pk": 11},
// {"fields": {"nome": "Artes Visuais"}, "model": "core.areaatuacao", "pk": 12},
// {"fields": {"nome": "Artesanato"}, "model": "core.areaatuacao", "pk": 13},
// {"fields": {"nome": "Bibliotecas"}, "model": "core.areaatuacao", "pk": 14},
//{"fields": {"nome": "Capoeira"}, "model": "core.areaatuacao", "pk": 15},
// pk 11, 12, 13, 14 e 15 vira 7


{"fields": {"nome": "Cidadania e Democracia"}, "model": "core.areaatuacao", "pk": 16},
{"fields": {"nome": "Cinema / Cineclubismo"}, "model": "core.areaatuacao", "pk": 17},

//{"fields": {"nome": "Cineclubismo"}, "model": "core.areaatuacao", "pk": 18},
// pk 18 vira 17


// {"fields": {"nome": "Circo"}, "model": "core.areaatuacao", "pk": 19},
// pk 19 vira 7

{"fields": {"nome": "Comunicação"}, "model": "core.areaatuacao", "pk": 20},

// {"fields": {"nome": "Cultura Caiçara"}, "model": "core.areaatuacao", "pk": 21},
// {"fields": {"nome": "Cultura Caipira"}, "model": "core.areaatuacao", "pk": 22},
// {"fields": {"nome": "Cultura Cigana"}, "model": "core.areaatuacao", "pk": 23},
// pk 21, 22 e 23 vira 25


{"fields": {"nome": "Cultura da Infância"}, "model": "core.areaatuacao", "pk": 24},
{"fields": {"nome": "Povos e Comunidades Tradicionais"}, "model": "core.areaatuacao", "pk": 25},
{"fields": {"nome": "Cultura Digital"}, "model": "core.areaatuacao", "pk": 26},

//{"fields": {"nome": "Cultura de Povos Tradicionais"}, "model": "core.areaatuacao", "pk": 27},
// pk 27 vira 25

{"fields": {"nome": "Cultura LGBTIA+"}, "model": "core.areaatuacao", "pk": 28},
{"fields": {"nome": "Culturas Afro-brasileiras"}, "model": "core.areaatuacao", "pk": 29},
{"fields": {"nome": "Culturas das Periferias"}, "model": "core.areaatuacao", "pk": 30},
{"fields": {"nome": "Culturas Estrangeiras (imigrantes)"}, "model": "core.areaatuacao", "pk": 31},
{"fields": {"nome": "Culturas Indígenas"}, "model": "core.areaatuacao", "pk": 32},
{"fields": {"nome": "Culturas Populares"}, "model": "core.areaatuacao", "pk": 33},
{"fields": {"nome": "Dança"}, "model": "core.areaatuacao", "pk": 34},
{"fields": {"nome": "Desenvolvimento Local"}, "model": "core.areaatuacao", "pk": 35},
{"fields": {"nome": "Produção e Difusão Cultural"}, "model": "core.areaatuacao", "pk": 36},
{"fields": {"nome": "Direito à cidade"}, "model": "core.areaatuacao", "pk": 37},
{"fields": {"nome": "Direito à terra"}, "model": "core.areaatuacao", "pk": 38},
{"fields": {"nome": "Direito à moradia"}, "model": "core.areaatuacao", "pk": 39},
{"fields": {"nome": "Direitos Ambientais"}, "model": "core.areaatuacao", "pk": 40},
{"fields": {"nome": "Direitos Culturais"}, "model": "core.areaatuacao", "pk": 41},
{"fields": {"nome": "Direitos da população afrodescendente"}, "model": "core.areaatuacao", "pk": 42},
{"fields": {"nome": "Direitos das Mulheres"}, "model": "core.areaatuacao", "pk": 43},
{"fields": {"nome": "Direitos de Imigrantes e Populações Refugiadas"}, "model": "core.areaatuacao", "pk": 44},
{"fields": {"nome": "Direitos dos Povos Indígenas"}, "model": "core.areaatuacao", "pk": 45},
{"fields": {"nome": "Direitos dos Trabalhadores"}, "model": "core.areaatuacao", "pk": 46},
{"fields": {"nome": "Direitos Humanos"}, "model": "core.areaatuacao", "pk": 47},
{"fields": {"nome": "Direitos LGBTIA+"}, "model": "core.areaatuacao", "pk": 48},
//{"fields": {"nome": "Direitos Quilombolas"}, "model": "core.areaatuacao", "pk": 49},
// pk 49 vira 25

{"fields": {"nome": "Direitos Sociais"}, "model": "core.areaatuacao", "pk": 50},
{"fields": {"nome": "Diversidade Cultural"}, "model": "core.areaatuacao", "pk": 51},
{"fields": {"nome": "Religião / Diversidade Religiosa"}, "model": "core.areaatuacao", "pk": 52},
{"fields": {"nome": "Economia Criativa"}, "model": "core.areaatuacao", "pk": 53},
{"fields": {"nome": "Economia Solidária"}, "model": "core.areaatuacao", "pk": 54},
{"fields": {"nome": "Educação Integral"}, "model": "core.areaatuacao", "pk": 55},

// {"fields": {"nome": "Educação Musical"}, "model": "core.areaatuacao", "pk": 56},
// pk 56 vira 78

{"fields": {"nome": "Educação Popular"}, "model": "core.areaatuacao", "pk": 57},
{"fields": {"nome": "Educação Profissionalizante"}, "model": "core.areaatuacao", "pk": 58},
{"fields": {"nome": "Empreendedorismo"}, "model": "core.areaatuacao", "pk": 59},
{"fields": {"nome": "Ensino ou Educação formal"}, "model": "core.areaatuacao", "pk": 60},
{"fields": {"nome": "Esporte e Lazer"}, "model": "core.areaatuacao", "pk": 61},

//{"fields": {"nome": "Fotografia"}, "model": "core.areaatuacao", "pk": 62},
// pk 62 vira 7

{"fields": {"nome": "Gestão Cultural"}, "model": "core.areaatuacao", "pk": 63},
// {"fields": {"nome": "Gastronomia"}, "model": "core.areaatuacao", "pk": 64},
//{"fields": {"nome": "Hip Hop"}, "model": "core.areaatuacao", "pk": 65},
// pk 64 e 65 vira 7

{"fields": {"nome": "Memória / História Oral"}, "model": "core.areaatuacao", "pk": 66},
{"fields": {"nome": "Inclusão e Acessibilidade"}, "model": "core.areaatuacao", "pk": 67},
{"fields": {"nome": "Intervenção Urbana"}, "model": "core.areaatuacao", "pk": 68},
{"fields": {"nome": "Jornalismo"}, "model": "core.areaatuacao", "pk": 69},
{"fields": {"nome": "Justiça"}, "model": "core.areaatuacao", "pk": 70},

//{"fields": {"nome": "Leitura"}, "model": "core.areaatuacao", "pk": 71},
// pk 71 vira 72

{"fields": {"nome": "Literatura / Livro / Leitura"}, "model": "core.areaatuacao", "pk": 72},

//{"fields": {"nome": "Livro"}, "model": "core.areaatuacao", "pk": 73},
// pk 73 vira 72

{"fields": {"nome": "Luta Antimanicomial"}, "model": "core.areaatuacao", "pk": 74},

//{"fields": {"nome": "Memória"}, "model": "core.areaatuacao", "pk": 75},
// pk 75 vira 66


{"fields": {"nome": "Mídias Sociais"}, "model": "core.areaatuacao", "pk": 76},
{"fields": {"nome": "Museus / Museologia"}, "model": "core.areaatuacao", "pk": 77},
{"fields": {"nome": "Música / Educação Musical"}, "model": "core.areaatuacao", "pk": 78},
// {"fields": {"nome": "Nova mídias"}, "model": "core.areaatuacao", "pk": 79},
// excluir

{"fields": {"nome": "Participação Popular"}, "model": "core.areaatuacao", "pk": 80},
{"fields": {"nome": "Patrimônio Imaterial"}, "model": "core.areaatuacao", "pk": 81},
{"fields": {"nome": "Patrimônio Material"}, "model": "core.areaatuacao", "pk": 82},
{"fields": {"nome": "Pedagogia"}, "model": "core.areaatuacao", "pk": 83},
{"fields": {"nome": "Pesquisa"}, "model": "core.areaatuacao", "pk": 84},
{"fields": {"nome": "Políticas Públicas"}, "model": "core.areaatuacao", "pk": 85},

//{"fields": {"nome": "Povos de Terreiro"}, "model": "core.areaatuacao", "pk": 86},
// pk 86 vira 25


{"fields": {"nome": "Promoção da Igualdade"}, "model": "core.areaatuacao", "pk": 87},

//{"fields": {"nome": "Rádio"}, "model": "core.areaatuacao", "pk": 88},
//pk 88 vira 10

{"fields": {"nome": "Saúde"}, "model": "core.areaatuacao", "pk": 89},
{"fields": {"nome": "Sustentabilidade"}, "model": "core.areaatuacao", "pk": 90},

{"fields": {"nome": "Teatro"}, "model": "core.areaatuacao", "pk": 91},
//{"fields": {"nome": "Teatro de rua"}, "model": "core.areaatuacao", "pk": 92},
// pk 92 vira 91


{"fields": {"nome": "Trabalho e renda"}, "model": "core.areaatuacao", "pk": 93},

//{"fields": {"nome": "Tradição Oral"}, "model": "core.areaatuacao", "pk": 94},
// pk 94 vira 66

{"fields": {"nome": "Violência"}, "model": "core.areaatuacao", "pk": 95},
{"fields": {"nome": "Cultura de paz"}, "model": "core.areaatuacao", "pk": 96},
{"fields": {"nome": "Outros"}, "model": "core.areaatuacao", "pk": 97},

// novos adicionados anteriormente
{"fields": {"nome": "Educação do Campo"}, "model": "core.areaatuacao", "pk": 98},
{"fields": {"nome": "Território"}, "model": "core.areaatuacao", "pk": 98},

// pk novos
{"fields": {"nome": "Assistência Social"}, "model": "core.areaatuacao", "pk": 100},
{"fields": {"nome": "Cidades Inteligentes"}, "model": "core.areaatuacao", "pk": 101},
{"fields": {"nome": "Produção e Difusão Científica"}, "model": "core.areaatuacao", "pk": 102},
{"fields": {"nome": "Tecnologias da Informação e Comunicação (TICs)"}, "model": "core.areaatuacao", "pk": 103},
{"fields": {"nome": "Nenhuma / Não se aplica"}, "model": "core.areaatuacao", "pk": 104},


]