[
{
    "fields": {
        "nome": "Aboio"
    },
    "model": "core.manifestacaocultural",
    "pk": 7
},
{
    "fields": {
        "nome": "Afox\u00e9"
    },
    "model": "core.manifestacaocultural",
    "pk": 8
},
{
    "fields": {
        "nome": "Amji kin"
    },
    "model": "core.manifestacaocultural",
    "pk": 9
},
{
    "fields": {
        "nome": "Arte urbana ( Grafite, Est\u00eancil, Arte em adesivo, lambe-lambe, Est\u00e1tuas Vivas, Instala\u00e7\u00f5es, Flash Mob, Apresenta\u00e7\u00f5es: dan\u00e7a, teatro, m\u00fasica, malabares, palha\u00e7os e etc."
    },
    "model": "core.manifestacaocultural",
    "pk": 10
},
{
    "fields": {
        "nome": "Avatikyry"
    },
    "model": "core.manifestacaocultural",
    "pk": 11
},
{
    "fields": {
        "nome": "Aw\u00ea"
    },
    "model": "core.manifestacaocultural",
    "pk": 12
},
{
    "fields": {
        "nome": "Ayaka"
    },
    "model": "core.manifestacaocultural",
    "pk": 13
},
{
    "fields": {
        "nome": "Babau "
    },
    "model": "core.manifestacaocultural",
    "pk": 14
},
{
    "fields": {
        "nome": "Bambelo"
    },
    "model": "core.manifestacaocultural",
    "pk": 15
},
{
    "fields": {
        "nome": "Banda de Congos"
    },
    "model": "core.manifestacaocultural",
    "pk": 16
},
{
    "fields": {
        "nome": "Banda de P\u00edfanos"
    },
    "model": "core.manifestacaocultural",
    "pk": 17
},
{
    "fields": {
        "nome": "Batuque de Umbigada"
    },
    "model": "core.manifestacaocultural",
    "pk": 18
},
{
    "fields": {
        "nome": "Bendito"
    },
    "model": "core.manifestacaocultural",
    "pk": 19
},
{
    "fields": {
        "nome": "B\u00e9rew\u00e1"
    },
    "model": "core.manifestacaocultural",
    "pk": 20
},
{
    "fields": {
        "nome": "Bloco Afro"
    },
    "model": "core.manifestacaocultural",
    "pk": 21
},
{
    "fields": {
        "nome": "Boi de mam\u00e3o"
    },
    "model": "core.manifestacaocultural",
    "pk": 22
},
{
    "fields": {
        "nome": "Boi-bumb\u00e1"
    },
    "model": "core.manifestacaocultural",
    "pk": 23
},
{
    "fields": {
        "nome": "Bumb- meu-boi de zabumba"
    },
    "model": "core.manifestacaocultural",
    "pk": 24
},
{
    "fields": {
        "nome": "Bumba me-boi de orquestra"
    },
    "model": "core.manifestacaocultural",
    "pk": 25
},
{
    "fields": {
        "nome": "Bumba-meu-boi costa de m\u00e3o"
    },
    "model": "core.manifestacaocultural",
    "pk": 26
},
{
    "fields": {
        "nome": "Bumba-meu-boi de matraca"
    },
    "model": "core.manifestacaocultural",
    "pk": 27
},
{
    "fields": {
        "nome": "Caapiwaya"
    },
    "model": "core.manifestacaocultural",
    "pk": 28
},
{
    "fields": {
        "nome": "Caboclinho"
    },
    "model": "core.manifestacaocultural",
    "pk": 29
},
{
    "fields": {
        "nome": "Caboclos"
    },
    "model": "core.manifestacaocultural",
    "pk": 30
},
{
    "fields": {
        "nome": "Cacumbi"
    },
    "model": "core.manifestacaocultural",
    "pk": 31
},
{
    "fields": {
        "nome": "Cacuri\u00e1"
    },
    "model": "core.manifestacaocultural",
    "pk": 32
},
{
    "fields": {
        "nome": "Caixeiras do Divino"
    },
    "model": "core.manifestacaocultural",
    "pk": 33
},
{
    "fields": {
        "nome": "Candombe"
    },
    "model": "core.manifestacaocultural",
    "pk": 34
},
{
    "fields": {
        "nome": "Cantos de Trabalho"
    },
    "model": "core.manifestacaocultural",
    "pk": 35
},
{
    "fields": {
        "nome": "Capoeira"
    },
    "model": "core.manifestacaocultural",
    "pk": 36
},
{
    "fields": {
        "nome": "Caretas"
    },
    "model": "core.manifestacaocultural",
    "pk": 37
},
{
    "fields": {
        "nome": "Cari\u00e7o "
    },
    "model": "core.manifestacaocultural",
    "pk": 38
},
{
    "fields": {
        "nome": "Carimb\u00f3"
    },
    "model": "core.manifestacaocultural",
    "pk": 39
},
{
    "fields": {
        "nome": "Carnavalito"
    },
    "model": "core.manifestacaocultural",
    "pk": 40
},
{
    "fields": {
        "nome": "Carreiros"
    },
    "model": "core.manifestacaocultural",
    "pk": 41
},
{
    "fields": {
        "nome": "Cassimiro Coco"
    },
    "model": "core.manifestacaocultural",
    "pk": 42
},
{
    "fields": {
        "nome": "Catira"
    },
    "model": "core.manifestacaocultural",
    "pk": 43
},
{
    "fields": {
        "nome": "Catop\u00e9"
    },
    "model": "core.manifestacaocultural",
    "pk": 44
},
{
    "fields": {
        "nome": "Catumbi"
    },
    "model": "core.manifestacaocultural",
    "pk": 45
},
{
    "fields": {
        "nome": "Cavalhada"
    },
    "model": "core.manifestacaocultural",
    "pk": 46
},
{
    "fields": {
        "nome": "Cavalo Marinho"
    },
    "model": "core.manifestacaocultural",
    "pk": 47
},
{
    "fields": {
        "nome": "Caxamb\u00fa"
    },
    "model": "core.manifestacaocultural",
    "pk": 48
},
{
    "fields": {
        "nome": "Caxiris"
    },
    "model": "core.manifestacaocultural",
    "pk": 49
},
{
    "fields": {
        "nome": "Chegan\u00e7a"
    },
    "model": "core.manifestacaocultural",
    "pk": 50
},
{
    "fields": {
        "nome": "Ciranda"
    },
    "model": "core.manifestacaocultural",
    "pk": 51
},
{
    "fields": {
        "nome": "cloves"
    },
    "model": "core.manifestacaocultural",
    "pk": 52
},
{
    "fields": {
        "nome": "Coco de Embolada"
    },
    "model": "core.manifestacaocultural",
    "pk": 53
},
{
    "fields": {
        "nome": "Coco de ganz\u00e1"
    },
    "model": "core.manifestacaocultural",
    "pk": 54
},
{
    "fields": {
        "nome": "Coco de mazuca"
    },
    "model": "core.manifestacaocultural",
    "pk": 55
},
{
    "fields": {
        "nome": "Coco de Praia"
    },
    "model": "core.manifestacaocultural",
    "pk": 56
},
{
    "fields": {
        "nome": "Coco de Roda"
    },
    "model": "core.manifestacaocultural",
    "pk": 57
},
{
    "fields": {
        "nome": "Coco de Tebei"
    },
    "model": "core.manifestacaocultural",
    "pk": 58
},
{
    "fields": {
        "nome": "Coco de Trup\u00e9"
    },
    "model": "core.manifestacaocultural",
    "pk": 59
},
{
    "fields": {
        "nome": "Coco de Umbigada"
    },
    "model": "core.manifestacaocultural",
    "pk": 60
},
{
    "fields": {
        "nome": "Coco de Zamb\u00ea"
    },
    "model": "core.manifestacaocultural",
    "pk": 61
},
{
    "fields": {
        "nome": "Coco Rural"
    },
    "model": "core.manifestacaocultural",
    "pk": 62
},
{
    "fields": {
        "nome": "Congada"
    },
    "model": "core.manifestacaocultural",
    "pk": 63
},
{
    "fields": {
        "nome": "Congo de saiote"
    },
    "model": "core.manifestacaocultural",
    "pk": 64
},
{
    "fields": {
        "nome": "Cord\u00e3o de P\u00e1ssaros/Cord\u00e3o de Bichos"
    },
    "model": "core.manifestacaocultural",
    "pk": 65
},
{
    "fields": {
        "nome": "Cordel"
    },
    "model": "core.manifestacaocultural",
    "pk": 66
},
{
    "fields": {
        "nome": "Corrida de Toras"
    },
    "model": "core.manifestacaocultural",
    "pk": 67
},
{
    "fields": {
        "nome": "Culturas imigrantes"
    },
    "model": "core.manifestacaocultural",
    "pk": 68
},
{
    "fields": {
        "nome": "Cururu"
    },
    "model": "core.manifestacaocultural",
    "pk": 69
},
{
    "fields": {
        "nome": "Dan\u00e7a Afro"
    },
    "model": "core.manifestacaocultural",
    "pk": 70
},
{
    "fields": {
        "nome": "Dan\u00e7a de Fitas"
    },
    "model": "core.manifestacaocultural",
    "pk": 71
},
{
    "fields": {
        "nome": "Dan\u00e7a de S\u00e3o Gon\u00e7alo"
    },
    "model": "core.manifestacaocultural",
    "pk": 72
},
{
    "fields": {
        "nome": "Dan\u00e7a do Bate-Pau"
    },
    "model": "core.manifestacaocultural",
    "pk": 73
},
{
    "fields": {
        "nome": "Dan\u00e7a dos Aruan\u00e3s"
    },
    "model": "core.manifestacaocultural",
    "pk": 74
},
{
    "fields": {
        "nome": "Egitsu "
    },
    "model": "core.manifestacaocultural",
    "pk": 75
},
{
    "fields": {
        "nome": "Escola de Samba"
    },
    "model": "core.manifestacaocultural",
    "pk": 76
},
{
    "fields": {
        "nome": "Etogo/Navio"
    },
    "model": "core.manifestacaocultural",
    "pk": 77
},
{
    "fields": {
        "nome": "Fandango"
    },
    "model": "core.manifestacaocultural",
    "pk": 78
},
{
    "fields": {
        "nome": "Festa Mboatava"
    },
    "model": "core.manifestacaocultural",
    "pk": 79
},
{
    "fields": {
        "nome": "Folia de Reis"
    },
    "model": "core.manifestacaocultural",
    "pk": 80
},
{
    "fields": {
        "nome": "Forr\u00f3"
    },
    "model": "core.manifestacaocultural",
    "pk": 81
},
{
    "fields": {
        "nome": "Frevo de Bloco"
    },
    "model": "core.manifestacaocultural",
    "pk": 82
},
{
    "fields": {
        "nome": "Frevo de Rua"
    },
    "model": "core.manifestacaocultural",
    "pk": 83
},
{
    "fields": {
        "nome": "Funk"
    },
    "model": "core.manifestacaocultural",
    "pk": 84
},
{
    "fields": {
        "nome": "Guerreiro"
    },
    "model": "core.manifestacaocultural",
    "pk": 85
},
{
    "fields": {
        "nome": "Hip Hop"
    },
    "model": "core.manifestacaocultural",
    "pk": 86
},
{
    "fields": {
        "nome": "Iakuig\u00e2de"
    },
    "model": "core.manifestacaocultural",
    "pk": 87
},
{
    "fields": {
        "nome": "Jawari"
    },
    "model": "core.manifestacaocultural",
    "pk": 88
},
{
    "fields": {
        "nome": "Jo\u00e3o Redondo"
    },
    "model": "core.manifestacaocultural",
    "pk": 89
},
{
    "fields": {
        "nome": "Jogo de Flechas"
    },
    "model": "core.manifestacaocultural",
    "pk": 90
},
{
    "fields": {
        "nome": "Jongo"
    },
    "model": "core.manifestacaocultural",
    "pk": 91
},
{
    "fields": {
        "nome": "Jongo de S\u00e3o Benedito"
    },
    "model": "core.manifestacaocultural",
    "pk": 92
},
{
    "fields": {
        "nome": "Jurupari"
    },
    "model": "core.manifestacaocultural",
    "pk": 93
},
{
    "fields": {
        "nome": "Kaapi way\u00e1"
    },
    "model": "core.manifestacaocultural",
    "pk": 94
},
{
    "fields": {
        "nome": "Kikikoi"
    },
    "model": "core.manifestacaocultural",
    "pk": 95
},
{
    "fields": {
        "nome": "Kwarup"
    },
    "model": "core.manifestacaocultural",
    "pk": 96
},
{
    "fields": {
        "nome": "La ursa"
    },
    "model": "core.manifestacaocultural",
    "pk": 97
},
{
    "fields": {
        "nome": "Ladainha"
    },
    "model": "core.manifestacaocultural",
    "pk": 98
},
{
    "fields": {
        "nome": "Lambe Sujo"
    },
    "model": "core.manifestacaocultural",
    "pk": 99
},
{
    "fields": {
        "nome": "Ma\u00e7ambique"
    },
    "model": "core.manifestacaocultural",
    "pk": 100
},
{
    "fields": {
        "nome": "Maculel\u00ea"
    },
    "model": "core.manifestacaocultural",
    "pk": 101
},
{
    "fields": {
        "nome": "Mamulengo"
    },
    "model": "core.manifestacaocultural",
    "pk": 102
},
{
    "fields": {
        "nome": "Marabaixo"
    },
    "model": "core.manifestacaocultural",
    "pk": 103
},
{
    "fields": {
        "nome": "Maracatu de Baque Solto/Maracatu Rural/Maracatu de Orquestra"
    },
    "model": "core.manifestacaocultural",
    "pk": 104
},
{
    "fields": {
        "nome": "Maracatu de Baque Virado/ Maracatu Na\u00e7\u00e3o"
    },
    "model": "core.manifestacaocultural",
    "pk": 105
},
{
    "fields": {
        "nome": "Marinheiros"
    },
    "model": "core.manifestacaocultural",
    "pk": 106
},
{
    "fields": {
        "nome": "Mariri"
    },
    "model": "core.manifestacaocultural",
    "pk": 107
},
{
    "fields": {
        "nome": "Marujada"
    },
    "model": "core.manifestacaocultural",
    "pk": 108
},
{
    "fields": {
        "nome": "Maryba"
    },
    "model": "core.manifestacaocultural",
    "pk": 109
},
{
    "fields": {
        "nome": "Mascarados"
    },
    "model": "core.manifestacaocultural",
    "pk": 110
},
{
    "fields": {
        "nome": "Matrizes do Samba do Rio de Janeiro (Partido Alto, Samba de Terreiro e Samba-enredo)"
    },
    "model": "core.manifestacaocultural",
    "pk": 111
},
{
    "fields": {
        "nome": "Mineiro pau"
    },
    "model": "core.manifestacaocultural",
    "pk": 112
},
{
    "fields": {
        "nome": "Mo\u00e7ambique de Bast\u00e3o"
    },
    "model": "core.manifestacaocultural",
    "pk": 113
},
{
    "fields": {
        "nome": "Moyngo"
    },
    "model": "core.manifestacaocultural",
    "pk": 114
},
{
    "fields": {
        "nome": "Nau Catarineta"
    },
    "model": "core.manifestacaocultural",
    "pk": 115
},
{
    "fields": {
        "nome": "Negro Fugido"
    },
    "model": "core.manifestacaocultural",
    "pk": 116
},
{
    "fields": {
        "nome": "Nixpupim\u00e1"
    },
    "model": "core.manifestacaocultural",
    "pk": 117
},
{
    "fields": {
        "nome": "Novena"
    },
    "model": "core.manifestacaocultural",
    "pk": 118
},
{
    "fields": {
        "nome": "Opetymo"
    },
    "model": "core.manifestacaocultural",
    "pk": 119
},
{
    "fields": {
        "nome": "Opirah\u00eb"
    },
    "model": "core.manifestacaocultural",
    "pk": 120
},
{
    "fields": {
        "nome": "Ouricuri"
    },
    "model": "core.manifestacaocultural",
    "pk": 121
},
{
    "fields": {
        "nome": "Parafuso"
    },
    "model": "core.manifestacaocultural",
    "pk": 122
},
{
    "fields": {
        "nome": "Parixara"
    },
    "model": "core.manifestacaocultural",
    "pk": 123
},
{
    "fields": {
        "nome": "Pastoril"
    },
    "model": "core.manifestacaocultural",
    "pk": 124
},
{
    "fields": {
        "nome": "Piyarentsi"
    },
    "model": "core.manifestacaocultural",
    "pk": 125
},
{
    "fields": {
        "nome": "Prai\u00e1"
    },
    "model": "core.manifestacaocultural",
    "pk": 126
},
{
    "fields": {
        "nome": "Pudali"
    },
    "model": "core.manifestacaocultural",
    "pk": 127
},
{
    "fields": {
        "nome": "Rap"
    },
    "model": "core.manifestacaocultural",
    "pk": 128
},
{
    "fields": {
        "nome": "Rasqueado Cuiabano"
    },
    "model": "core.manifestacaocultural",
    "pk": 129
},
{
    "fields": {
        "nome": "Ratoeira"
    },
    "model": "core.manifestacaocultural",
    "pk": 130
},
{
    "fields": {
        "nome": "Reisado de Congo"
    },
    "model": "core.manifestacaocultural",
    "pk": 131
},
{
    "fields": {
        "nome": "Repente"
    },
    "model": "core.manifestacaocultural",
    "pk": 132
},
{
    "fields": {
        "nome": "Samba Chula"
    },
    "model": "core.manifestacaocultural",
    "pk": 133
},
{
    "fields": {
        "nome": "Samba de Bumbo"
    },
    "model": "core.manifestacaocultural",
    "pk": 134
},
{
    "fields": {
        "nome": "Samba de Coco"
    },
    "model": "core.manifestacaocultural",
    "pk": 135
},
{
    "fields": {
        "nome": "Samba de Roda"
    },
    "model": "core.manifestacaocultural",
    "pk": 136
},
{
    "fields": {
        "nome": "Samba de umbigada"
    },
    "model": "core.manifestacaocultural",
    "pk": 137
},
{
    "fields": {
        "nome": "Samba Duro"
    },
    "model": "core.manifestacaocultural",
    "pk": 138
},
{
    "fields": {
        "nome": "Samba Len\u00e7o"
    },
    "model": "core.manifestacaocultural",
    "pk": 139
},
{
    "fields": {
        "nome": "Samba Rock"
    },
    "model": "core.manifestacaocultural",
    "pk": 140
},
{
    "fields": {
        "nome": "Samba Rural"
    },
    "model": "core.manifestacaocultural",
    "pk": 141
},
{
    "fields": {
        "nome": "Samba Trovado"
    },
    "model": "core.manifestacaocultural",
    "pk": 142
},
{
    "fields": {
        "nome": "Sarau Liter\u00e1rio"
    },
    "model": "core.manifestacaocultural",
    "pk": 143
},
{
    "fields": {
        "nome": "Serrador"
    },
    "model": "core.manifestacaocultural",
    "pk": 144
},
{
    "fields": {
        "nome": "Siriri"
    },
    "model": "core.manifestacaocultural",
    "pk": 145
},
{
    "fields": {
        "nome": "Sussa"
    },
    "model": "core.manifestacaocultural",
    "pk": 146
},
{
    "fields": {
        "nome": "Taik\u00f4"
    },
    "model": "core.manifestacaocultural",
    "pk": 147
},
{
    "fields": {
        "nome": "Takwara-rero'awa"
    },
    "model": "core.manifestacaocultural",
    "pk": 148
},
{
    "fields": {
        "nome": "Tambor de Crioula"
    },
    "model": "core.manifestacaocultural",
    "pk": 149
},
{
    "fields": {
        "nome": "Tambor de Mina"
    },
    "model": "core.manifestacaocultural",
    "pk": 150
},
{
    "fields": {
        "nome": "Tavata vete "
    },
    "model": "core.manifestacaocultural",
    "pk": 151
},
{
    "fields": {
        "nome": "Tawarawan\u00e3"
    },
    "model": "core.manifestacaocultural",
    "pk": 152
},
{
    "fields": {
        "nome": "Terno de Reis"
    },
    "model": "core.manifestacaocultural",
    "pk": 153
},
{
    "fields": {
        "nome": "Ticumbi"
    },
    "model": "core.manifestacaocultural",
    "pk": 154
},
{
    "fields": {
        "nome": "Tor\u00e9"
    },
    "model": "core.manifestacaocultural",
    "pk": 155
},
{
    "fields": {
        "nome": "Undufe"
    },
    "model": "core.manifestacaocultural",
    "pk": 156
},
{
    "fields": {
        "nome": "Vaner\u00e3o"
    },
    "model": "core.manifestacaocultural",
    "pk": 157
},
{
    "fields": {
        "nome": "Vaquejada"
    },
    "model": "core.manifestacaocultural",
    "pk": 158
},
{
    "fields": {
        "nome": "Vil\u00e3o"
    },
    "model": "core.manifestacaocultural",
    "pk": 159
},
{
    "fields": {
        "nome": "Viola  de Cocho"
    },
    "model": "core.manifestacaocultural",
    "pk": 160
},
{
    "fields": {
        "nome": "Vissungos"
    },
    "model": "core.manifestacaocultural",
    "pk": 161
},
{
    "fields": {
        "nome": "Waratoa"
    },
    "model": "core.manifestacaocultural",
    "pk": 162
},
{
    "fields": {
        "nome": "Xingan\u00e9"
    },
    "model": "core.manifestacaocultural",
    "pk": 163
},
{
    "fields": {
        "nome": "Yreru\u00e1"
    },
    "model": "core.manifestacaocultural",
    "pk": 164
},
{
    "fields": {
        "nome": "Yurupari"
    },
    "model": "core.manifestacaocultural",
    "pk": 165
},
{
    "fields": {
        "nome": "Outros"
    },
    "model": "core.manifestacaocultural",
    "pk": 166
}
]
